[api-updater (non-obsolete-error-filter)] 4/23/2021 10:25:10 PM : Starting C:/Program Files/Unity/Hub/Editor/2020.2.3f1/Editor/Data/Tools/ScriptUpdater/APIUpdater.NonObsoleteApiUpdaterDetector.exe
[api-updater (non-obsolete-error-filter)] 
----------------------------------
jit/startup time      : 394.0878ms
moved types parse time: 47ms
candidates parse time : 1ms
C# parse time         : 256ms
candidates check time : 37ms
console write time    : 0ms

[api-updater (non-obsolete-error-filter)] 4/23/2021 11:20:26 PM : Starting C:/Program Files/Unity/Hub/Editor/2020.2.3f1/Editor/Data/Tools/ScriptUpdater/APIUpdater.NonObsoleteApiUpdaterDetector.exe
[api-updater (non-obsolete-error-filter)] 
----------------------------------
jit/startup time      : 64.014ms
moved types parse time: 43ms
candidates parse time : 1ms
C# parse time         : 173ms
candidates check time : 38ms
console write time    : 0ms

[api-updater (non-obsolete-error-filter)] 4/24/2021 1:26:59 AM : Starting C:/Program Files/Unity/Hub/Editor/2020.2.3f1/Editor/Data/Tools/ScriptUpdater/APIUpdater.NonObsoleteApiUpdaterDetector.exe
[api-updater (non-obsolete-error-filter)] 
----------------------------------
jit/startup time      : 174.8995ms
moved types parse time: 51ms
candidates parse time : 1ms
C# parse time         : 222ms
candidates check time : 67ms
console write time    : 0ms

[api-updater (non-obsolete-error-filter)] 4/24/2021 1:27:00 AM : Starting C:/Program Files/Unity/Hub/Editor/2020.2.3f1/Editor/Data/Tools/ScriptUpdater/APIUpdater.NonObsoleteApiUpdaterDetector.exe
[api-updater (non-obsolete-error-filter)] 
----------------------------------
jit/startup time      : 66.0119ms
moved types parse time: 51ms
candidates parse time : 1ms
C# parse time         : 173ms
candidates check time : 63ms
console write time    : 0ms

[api-updater (non-obsolete-error-filter)] 4/24/2021 1:27:09 AM : Starting C:/Program Files/Unity/Hub/Editor/2020.2.3f1/Editor/Data/Tools/ScriptUpdater/APIUpdater.NonObsoleteApiUpdaterDetector.exe
[api-updater (non-obsolete-error-filter)] 
----------------------------------
jit/startup time      : 67.015ms
moved types parse time: 45ms
candidates parse time : 1ms
C# parse time         : 178ms
candidates check time : 67ms
console write time    : 0ms

[api-updater (non-obsolete-error-filter)] 4/24/2021 1:27:18 AM : Starting C:/Program Files/Unity/Hub/Editor/2020.2.3f1/Editor/Data/Tools/ScriptUpdater/APIUpdater.NonObsoleteApiUpdaterDetector.exe
[api-updater (non-obsolete-error-filter)] 
----------------------------------
jit/startup time      : 65.0152ms
moved types parse time: 46ms
candidates parse time : 1ms
C# parse time         : 188ms
candidates check time : 65ms
console write time    : 0ms

[api-updater (non-obsolete-error-filter)] 4/24/2021 1:27:24 AM : Starting C:/Program Files/Unity/Hub/Editor/2020.2.3f1/Editor/Data/Tools/ScriptUpdater/APIUpdater.NonObsoleteApiUpdaterDetector.exe
[api-updater (non-obsolete-error-filter)] 
----------------------------------
jit/startup time      : 63.0144ms
moved types parse time: 44ms
candidates parse time : 0ms
C# parse time         : 233ms
candidates check time : 40ms
console write time    : 0ms

[api-updater (non-obsolete-error-filter)] 4/24/2021 5:28:11 PM : Starting C:/Program Files/Unity/Hub/Editor/2020.2.3f1/Editor/Data/Tools/ScriptUpdater/APIUpdater.NonObsoleteApiUpdaterDetector.exe
[api-updater (non-obsolete-error-filter)] 
----------------------------------
jit/startup time      : 571.1274ms
moved types parse time: 48ms
candidates parse time : 1ms
C# parse time         : 319ms
candidates check time : 46ms
console write time    : 0ms

